"IMG","URL","NAME","ADDRESS"
"/fileadmin/_processed_/1/c/csm_cordey_2_8bd128d5a4.jpg","/profil/cordey/","Sabine Cordey","bms Praxis für persönliche Entwicklung  Spenerstr. 11, 10557 Berlin, 030/60509519"
"/fileadmin/_processed_/e/2/csm_raab_66e91030be.jpg","/profil/raab/","Dipl-Psychologin/psychologische Psychotherapeutin Anna Raab","Praxis für Psychotherapie Beratung Coaching  Kommandantenstr 80, 10117 Berlin, 0152/59302291"
"/fileadmin/_processed_/4/c/csm_nunheim_4009ec2960.jpg","/profil/nunheim/","M.Sc. Psych. Anke Nunheim","Psychologische Psychotherapeutin (Verhaltenstherapie)  Stresemannstraße 40, 10963 Berlin, 0151/15988471"
"/fileadmin/img/default_small.png","/profil/martaller/","M.Sc. Michael Martaller","Psychotherapeut  Stresemannstraße 40, 10963 Berlin, 01521/4094340"
"/fileadmin/_processed_/d/8/csm_vandamme_1_904813f289.jpg","/profil/vandamme/","Dipl.-Psych. Angelika Vandamme","Psychologische Psychotherapeutin  Große Hamburger Straße 5-11, 10115 Berlin, 0151/65122380"
"/fileadmin/_processed_/0/4/csm_51838_9ab4f22544.jpg","/profil/duemchen/","Dipl.Psych. Juergen Duemchen","Psychologischer Psychotherapeut  Saarmunder Str. 7, 10115 Berlin, 030/23112966"
"/fileadmin/_processed_/1/7/csm_frydryszek_3_37460f80ef.jpg","/profil/frydryszek/","MA Andrzej Frydryszek","Praxis für Systemische Körperpsychotherapie (HPG)  Pohlstraße 62, 10785 Berlin, 030/81037408"
"/fileadmin/_processed_/9/2/csm_ludwig_1_0289c056d5.jpg","/profil/ludwig/","Dipl.-Psych. Anna Ludwig","Praxis für Psychotherapie und psychologische Beratung  Thomasiusstraße 23, 10557 Berlin, 0151/57823124"
"/fileadmin/_processed_/8/2/csm_kigel_a623a569a9.jpg","/profil/kigel/","Dr. Dipl.-Psych. Rebecca Kigel","Kinder- und Jugendlichenpsychotherapeutin  Elisabeth-Mara-Straße 7, 10117 Berlin, 0151/52406763"
"/fileadmin/img/default_small.png","/profil/valenzuelaperez/","Dipl.-Psychologin Amalia Valenzuela Pérez","Psychologische Psychotherapeutin  Stresemannstr. 21, 10963 Berlin, 0176/43016925"
"/fileadmin/_processed_/0/8/csm_baschin_d09134a328.jpg","/profil/baschin/","Kirsten Baschin","Psychologische Psychotherapeutin  Stresemannstr. 21, 10963 Berlin, 000/00000000"
"/fileadmin/_processed_/6/c/csm_claser_c0da22919d.jpg","/profil/claser/","Dr. Sonja Claser","Praxis für Psychotherapie und Coaching  Thomasiusstr. 3, 10557 Berlin, 0173/6147453"
"/fileadmin/_processed_/d/6/csm_seegers.ines_2_9364318eac.jpg","/profil/seegers.ines/","Ines Seegers","Heilpraktikerin Psychotherapie, Systemische Familientherapeutin (DGSF)  Ackerstr. 168, 10115 Berlin, 030/49780871"
"/fileadmin/_processed_/d/7/csm_mumm_4b94bd2d57.jpg","/profil/mumm/","Dr. Jennifer Mumm","Psychologische Psychotherapeutin  Bergstraße 22, 10115 Berlin, 0157/50676048"
"/fileadmin/_processed_/d/d/csm_koehne_073523f238.jpg","/profil/koehne/","Dr. phil. Svenja Köhne","Psychologische Psychotherapeutin  Bergstraße 22, 10115 Berlin, 0157/37232789"
