"IMG","URL","NAME","ADDRESS"
"/fileadmin/_processed_/c/2/csm_simon.bollmann_45a123a1e3.jpg","/profil/simon.bollmann/","Simon Bollmann","Psychologischer Psychotherapeut  Regensburger Str. 15, 10777 Berlin, 030/64472798"
"/fileadmin/_processed_/8/8/csm_dirk.weber_5bed2362de.jpg","/profil/dirk.weber/","Dipl.-Psych. Dirk Weber","Psychologischer Psychotherapeut (Tiefenpsychologie)  Carmerstraße 10, 10623 Berlin, 030/86438264"
"/fileadmin/_processed_/9/5/csm_kaminski_4a13046942.jpg","/profil/kaminski/","Dipl.-Psych. Annett Kaminski","Psychologische Psychotherapeutin  Carmerstr. 10, 10623 Berlin, 030/24357509"
"/fileadmin/_processed_/d/7/csm_cavkaytar_2_3de9d57796.jpg","/profil/cavkaytar/","Dr. Ender Cavkaytar","Praxis für Psychotherapie  Barbarossastrasse 36, 10779 Berlin, 0176/53542072"
"/fileadmin/img/default_small.png","/profil/kerstin.kuhlmann/","Dipl.-Psych. Kerstin Kuhlmann","Psychologische Psychotherapeutin (PP)  Sredzkistr. 48, 10435 Berlin, 0157/35151766"
"/fileadmin/_processed_/d/a/csm_jaenicke_1_f80900237a.jpg","/profil/jaenicke/","Martina Jänicke","Heilpraktikerin für Psychotherapie, Seelsorgerin, Coachin, Trainerin  Treuchtlinger Str. 4, 10779 Berlin, 030/7869307"
"/fileadmin/img/default_small.png","/profil/campal/","Dr. Andrea Campal","Fachärztin für Psychiatrie und Psychotherapie  Fasanenstr. 27, 10719 Berlin, 0157/37856593"
"/fileadmin/_processed_/0/d/csm_voemel_2_24f3bb87fc.png","/profil/voemel/","M. Sc. Psych. Susanne Vömel","Praxis für körperorientierte Psychotherapie, Paartherapie  Knesebeckstrasse 13-14, 10623 Berlin, 0178/1890704"
"/fileadmin/_processed_/e/9/csm_dornhofer_bbe9856e06.jpg","/profil/dornhofer/","Mechtild Dornhofer","Integrative Psychotherapie  Marienburgerstrasse 5a, 10405 Berlin, 030/8860599"
"/fileadmin/_processed_/c/1/csm_stockhecke_36943417fa.jpg","/profil/stockhecke/","Stefanie Stockhecke","Praxis für Systemisches Coaching, Beratung & Therapie  Lychener Straße 9, 10437 Berlin, 0179/4669167"
"/fileadmin/_processed_/a/2/csm_jan.kaspers_2_747dbcdc57.jpg","/profil/jan.kaspers/","Jan Kaspers","Jan Kaspers - Coaching und Psychotherapie  Kollwitzstraße 89, 10435 Berlin, 0157/54181912"
"/fileadmin/_processed_/1/8/csm_pereznaranjo_856f94a880.jpg","/profil/pereznaranjo/","Dr. Lena Pérez Naranjo","Praxis für interkulturelle Psychotherapie  Lychenerstr. 10, 10437 Berlin, 49/01736341252"
"/fileadmin/_processed_/6/4/csm_gelber_0f361fe767.jpg","/profil/gelber/","Willa Gelber","Psychotherapie & Psychoanalyse  Cheruskerstr. 10-1, 10829 Berlin, 030/30644763"
"/fileadmin/_processed_/1/0/csm_zulynar_359d24c061.jpg","/profil/zulynar/","Dipl. psych. Bettina zu Lynar","Psychologische Psychotherapeutin  Fasanenstr. 40, 10719 Berlin, 030/30129501"
"/fileadmin/_processed_/3/3/csm_esch_a864dd02eb.jpg","/profil/esch/","Dipl.-Psych. Katharina Esch","Psychologische Psychotherapeutin  Kottbusser Damm 94, 10967 Berlin, 0176/97572381"
